{
  "project_info": {
    "project_number": "727549382135",
    "firebase_url": "https://mthandazo-eaf5e.firebaseio.com",
    "project_id": "mthandazo-eaf5e",
    "storage_bucket": "mthandazo-eaf5e.appspot.com"
  },
  "client": [
    {
      "client_info": {
        "mobilesdk_app_id": "1:727549382135:android:82c13493740bda03b872f2",
        "android_client_info": {
          "package_name": "com.higherlifefoundation.simbanutricoach"
        }
      },
      "oauth_client": [
        {
          "client_id": "727549382135-qb5kvgf30mhvjei7q64un4pic9hmqb7o.apps.googleusercontent.com",
          "client_type": 1,
          "android_info": {
            "package_name": "com.higherlifefoundation.simbanutricoach",
            "certificate_hash": "a1b0420ee64363bd244db10757e9702c137259ba"
          }
        },
        {
          "client_id": "727549382135-oensecs03i1decfdi3k2deqre2dvibhu.apps.googleusercontent.com",
          "client_type": 3
        }
      ],
      "api_key": [
        {
          "current_key": "AIzaSyCxTMt9EuEyRrr05xR1AhRTAIDLpW5u7ZI"
        }
      ],
      "services": {
        "appinvite_service": {
          "other_platform_oauth_client": [
            {
              "client_id": "727549382135-oensecs03i1decfdi3k2deqre2dvibhu.apps.googleusercontent.com",
              "client_type": 3
            }
          ]
        }
      }
    },
    {
      "client_info": {
        "mobilesdk_app_id": "1:727549382135:android:ca7301560ff48b19b872f2",
        "android_client_info": {
          "package_name": "com.mthandazondhlovu.hospitalsupport"
        }
      },
      "oauth_client": [
        {
          "client_id": "727549382135-oensecs03i1decfdi3k2deqre2dvibhu.apps.googleusercontent.com",
          "client_type": 3
        }
      ],
      "api_key": [
        {
          "current_key": "AIzaSyCxTMt9EuEyRrr05xR1AhRTAIDLpW5u7ZI"
        }
      ],
      "services": {
        "appinvite_service": {
          "other_platform_oauth_client": [
            {
              "client_id": "727549382135-oensecs03i1decfdi3k2deqre2dvibhu.apps.googleusercontent.com",
              "client_type": 3
            }
          ]
        }
      }
    },
    {
      "client_info": {
        "mobilesdk_app_id": "1:727549382135:android:22b3684fd9a09e36b872f2",
        "android_client_info": {
          "package_name": "zw.co.simbanutricoach.simbanutricoach"
        }
      },
      "oauth_client": [
        {
          "client_id": "727549382135-tltii6lvlrugsql83hp1cl842drercvc.apps.googleusercontent.com",
          "client_type": 1,
          "android_info": {
            "package_name": "zw.co.simbanutricoach.simbanutricoach",
            "certificate_hash": "a1b0420ee64363bd244db10757e9702c137259ba"
          }
        },
        {
          "client_id": "727549382135-oensecs03i1decfdi3k2deqre2dvibhu.apps.googleusercontent.com",
          "client_type": 3
        }
      ],
      "api_key": [
        {
          "current_key": "AIzaSyCxTMt9EuEyRrr05xR1AhRTAIDLpW5u7ZI"
        }
      ],
      "services": {
        "appinvite_service": {
          "other_platform_oauth_client": [
            {
              "client_id": "727549382135-oensecs03i1decfdi3k2deqre2dvibhu.apps.googleusercontent.com",
              "client_type": 3
            }
          ]
        }
      }
    }
  ],
  "configuration_version": "1"
}